collimator,plane,inj beta,FT noXing beta,FT xing beta,640 beta,200 beta,150 beta,inj sig,FT noXing sig,FT xing sig,640 sig,200 sig,150 sig,inj gap,FT noXing gap,FT xing gap,640 gap,200 gap,150 gap
TCTPXV.4R1.B2,V,145.99887,1017.26215,1006.7376,1574.5127,5411.642,7212.5825,15.4,30.355249499831242,30.513505383676794,24.39928868390507,13.160903837027089,11.4,13.4345651490085,17.72293440499817,17.72293440499817,17.72293440499817,17.72293440499817,17.72293440499817
TCTPXH.4R1.B2,H,262.05658,863.0282,853.4825,1333.5176,3502.7476,4664.9263,15.4,26.504203070576573,26.652008146628383,21.321996656591974,13.155968465230195,11.4,17.998918039481474,14.253208054929951,14.253208054929951,14.253208054929951,14.253208054929951,14.253208054929951
TCTPV.6R1.B2,V,61.932934,31.477556,33.054127,65.10377,237.90434,316.13364,15.4,36.12764898364931,35.255539173942765,25.121012778375515,13.141320885175158,11.4,8.750033019553415,3.710441477569629,3.710441477569629,3.710441477569629,3.710441477569629,3.710441477569629
TCTPH.6R1.B2,H,156.25302,302.92865,300.3154,348.50543,898.9156,1195.4607,15.4,22.64656443181498,22.744882673901298,21.11386430017453,13.14658779447139,11.4,13.898344645812914,7.21535798481932,7.21535798481932,7.21535798481932,7.21535798481932,7.21535798481932
TCTPXV.4R5.B2,V,146.25046,1032.5729,1005.8265,1571.0814,5395.529,7186.2383,15.4,30.074284357245837,30.471520540644526,24.381269311501462,13.156447898390256,11.4,13.446135464328298,17.690537941859603,17.690537941859603,17.690537941859603,17.690537941859603,17.690537941859603
TCTPXH.4R5.B2,H,261.83774,859.39276,850.83167,1329.1748,3498.432,4657.6494,15.4,26.539479648763223,26.672666014386316,21.34013679275909,13.153809197096484,11.4,17.991401086730157,14.242086870113063,14.242086870113063,14.242086870113063,14.242086870113063,14.242086870113063
TCTPV.6R5.B2,V,61.441254,30.093578,31.315786,61.559956,224.18262,297.6736,15.4,35.854040610086265,35.147412707431684,25.068357112888325,13.13633013345331,11.4,8.715230935779225,3.600480001919204,3.600480001919204,3.600480001919204,3.600480001919204,3.600480001919204
TCTPH.6R5.B2,H,156.53261,298.46622,296.48672,342.69153,885.57996,1177.6414,15.4,22.644554730647123,22.720022105989464,21.132928892995423,13.146116806753612,11.4,13.91077338761641,7.161380629275516,7.161380629275516,7.161380629275516,7.161380629275516,7.161380629275516
TCDQA.B4L6.B2,H,535.6781,693.91614,703.81177,701.8418,534.0554,506.51422,9.5,11.1,11.1,11.1,11.1,11.1,15.874633070564315,5.352563815493133,5.390593980418373,5.383044551728228,4.695712766057226,4.573031382567153
TCDQA.C4L6.B2,H,523.92267,678.18646,687.86255,685.9456,522.13605,495.4255,9.5,11.1,11.1,11.1,11.1,11.1,15.69948276479054,5.291550171879299,5.329165312015409,5.3217344886791755,4.643016196601667,4.522697501449448
TCDQA.A4L6.B2,H,512.34515,662.6739,672.1323,670.26776,510.39893,484.50983,9.5,11.1,11.1,11.1,11.1,11.1,15.52505208994092,5.2306816579201145,5.267878516592242,5.260566628421708,4.59053429105504,4.472595833678544
TCSP.A4L6.B2,H,547.13763,709.2299,719.33826,717.31683,545.67633,517.3286,8.3,11.1,11.1,11.1,11.1,11.1,14.016982493021448,5.411303396132817,5.449729409040639,5.442066838465179,4.746526589771275,4.621592076365883
