collimator,plane,inj beta,FT noXing beta,FT xing beta,640 beta,200 beta,150 beta,inj sig,FT noXing sig,FT xing sig,640 sig,200 sig,150 sig,inj gap,FT noXing gap,FT xing gap,640 gap,200 gap,150 gap
TCTPXV.4R1.B2,V,145.99887,1017.2671,1006.6248,1574.4877,5409.6865,7212.426,15.4,30.354845908108604,30.514883296543264,24.39921746365197,13.163139384621392,11.4,13.4345651490085,17.722741833380336,17.722741833380336,17.722741833380336,17.722741833380336,17.722741833380336
TCTPXH.4R1.B2,H,262.05658,862.9918,853.5675,1333.5239,3502.7617,4664.8916,15.4,26.50466318227741,26.65058171068235,21.321866681052594,13.155892988163162,11.4,17.998918039481474,14.253155092604187,14.253155092604187,14.253155092604187,14.253155092604187,14.253155092604187
TCTPV.6R1.B2,V,61.932938,31.473377,33.041405,65.101974,237.87674,316.1268,15.4,36.12965676664142,35.26194453458654,25.121087084027295,13.141941230491748,11.4,8.75003328902819,3.710401360859115,3.710401360859115,3.710401360859115,3.710401360859115,3.710401360859115
TCTPH.6R1.B2,H,156.25302,302.88327,300.23746,348.50287,899.0028,1195.4469,15.4,22.648130219728586,22.747703538099703,21.11382014043688,13.145874209593284,11.4,13.898344645812914,7.215316357126705,7.215316357126705,7.215316357126705,7.215316357126705,7.215316357126705
TCTPXV.4R5.B2,V,146.25046,1032.5643,1005.48895,1571.0284,5393.823,7186.0933,15.4,30.074105341006753,30.476326966619222,24.381434388398155,13.15839504521139,11.4,13.446135464328298,17.69035944190159,17.69035944190159,17.69035944190159,17.69035944190159,17.69035944190159
TCTPXH.4R5.B2,H,261.83774,859.4239,850.9369,1329.1904,3498.298,4657.6113,15.4,26.538890514783116,26.670907782024646,21.339924113204724,13.154006941148552,11.4,17.991401086730157,14.242028640704723,14.242028640704723,14.242028640704723,14.242028640704723,14.242028640704723
TCTPV.6R5.B2,V,61.44125,30.096619,31.32235,61.55967,224.16861,297.66852,15.4,35.85192269231864,35.14342932817938,25.06820076853565,13.136628093555307,11.4,8.715230665228365,3.600449180086306,3.600449180086306,3.600449180086306,3.600449180086306,3.600449180086306
TCTPH.6R5.B2,H,156.53261,298.4736,296.5198,342.6952,885.6581,1177.6315,15.4,22.64417951422915,22.718659322164783,21.132727259632468,13.145481790016428,11.4,13.91077338761641,7.161350565072241,7.161350565072241,7.161350565072241,7.161350565072241,7.161350565072241
TCDQA.B4L6.B2,H,535.67816,694.03577,704.45776,701.8685,532.12146,506.54465,9.5,11.1,11.1,11.1,11.1,11.1,15.874633974942036,5.353025177987203,5.393067300786335,5.383147071772708,4.687202828191764,4.573168730220681
TCDQA.C4L6.B2,H,523.92267,678.3021,688.4881,685.9714,521.3466,495.45514,9.5,11.1,11.1,11.1,11.1,11.1,15.69948276479054,5.2920013775671375,5.331587960372127,5.321834401669278,4.639504930926095,4.52283275603077
TCDQA.A4L6.B2,H,512.34515,662.7856,672.7378,670.29266,510.7299,484.53867,9.5,11.1,11.1,11.1,11.1,11.1,15.52505208994092,5.23112245761621,5.270250681812833,5.260664349981166,4.59202239313454,4.472728941164454
TCSP.A4L6.B2,H,547.13763,709.35333,720.004,717.3444,542.6202,517.35974,8.3,11.1,11.1,11.1,11.1,11.1,14.016982493021448,5.411774186058065,5.452250778695135,5.4421714879688485,4.733216065196125,4.621731116064759
TCLPX.4L1.B2,H,138.5721,966.4863,955.07983,1492.7949,5169.7295,6885.805,0,37.90249964324849,38.12816216670184,30.497597980835618,16.388220559418187,14.2,0.0,21.570046982343328,21.570046982343328,21.570046982343328,21.570046982343328,21.570046982343328
TCL.5L1.B2,H,55.608257,85.84979,84.7975,150.44109,601.7289,800.7586,0,43.36801324879263,43.6362705684007,32.760907396963525,16.380936362437886,14.2,0.0,7.355708887221048,7.355708887221048,7.355708887221048,7.355708887221048,7.355708887221048
TCL.6L1.B2,H,53.855892,13.978121,13.963287,25.244232,100.570816,132.94185,0,43.792002679569194,43.81525701983789,32.586530126932,16.326128647639813,14.2,0.0,2.997123111646558,2.997123111646558,2.997123111646558,2.997123111646558,2.997123111646558
TCLPX.4L5.B2,H,138.85065,963.2927,952.2444,1488.3986,5163.9243,6875.2446,0,37.93615245923519,38.155593381347465,30.519175848568075,16.384850678798895,14.2,0.0,21.55349997784132,21.55349997784132,21.55349997784132,21.55349997784132,21.55349997784132
TCL.5L5.B2,H,55.017895,88.95702,87.732254,154.75551,620.43567,825.1628,0,43.24820012175394,43.5490330026849,32.789523201317344,16.376073579729173,14.2,0.0,7.466955120272392,7.466955120272392,7.466955120272392,7.466955120272392,7.466955120272392
TCL.6L5.B2,H,54.184692,14.881626,14.790674,27.297783,109.10624,144.15732,0,44.195850586025735,44.33152853962992,32.63194826164699,16.322320380206673,14.2,0.0,3.120987812435678,3.120987812435678,3.120987812435678,3.120987812435678,3.120987812435678
